R Notebook • fibre
…
## Warning: 'rgl.init' failed, running with 'rgl.useNULL = TRUE'.

library(patchwork)
data(bird_beak_codes)

bird_beak_codes is a pf object. A
pf object is a type of data.frame that
includes phylogenetic information in a special type of column. By
convention this column is called phlo. Let’s print it and
have a look:

print(bird_beak_codes)

## # A tibble: 4,040 × 80
##    label      is_tip phlo            Commo…¹ Sex   Scien…² Clade BLFam…³ BLFam…⁴
##    <chr>      <lgl>  <pfc>           <chr>   <chr> <chr>   <chr> <chr>   <chr>  
##  1 Nothocerc… TRUE   ◎── 27.…partei  Highla… F     Nothoc… Pale… Tinami… Tinamo…
##  2 Tinamus_g… TRUE   ◎── 27.…ttatus  White-… M     Tinamu… Pale… Tinami… Tinamo…
##  3 Crypturel… TRUE   ◎── 27.…egatus  Varieg… M     Cryptu… Pale… Tinami… Tinamo…
##  4 Eudromia_… TRUE   ◎──   2…legans  Elegan… M     Eudrom… Pale… Tinami… Tinamo…
##  5 Tinamotis… TRUE   ◎──   2…landii  Puna T… M     Tinamo… Pale… Tinami… Tinamo…
##  6 Taoniscus… TRUE   ◎──   2…_nanus  Dwarf … M     Taonis… Pale… Tinami… Tinamo…
##  7 Nothura_d… TRUE   ◎──   2…rwinii  Darwin… M     Nothur… Pale… Tinami… Tinamo…
##  8 Rhynchotu… TRUE   ◎──   2…collis  Huayco… U     Rhynch… Pale… Tinami… Tinamo…
##  9 Nothoproc… TRUE   ◎──   2…icaria  Chilea… M     Nothop… Pale… Tinami… Tinamo…
## 10 Rhea_amer… TRUE   ◎──   2…ricana  Greate… M     Rhea a… Pale… Rheidae Rheas  
## # … with 4,030 more rows, 71 more variables: Order <chr>, OscSubOsc <chr>,
## #   X <dbl>, Y <dbl>, X0 <dbl>, Y0 <dbl>, Z0 <dbl>, latent_code_1 <dbl>,
## #   latent_code_2 <dbl>, latent_code_3 <dbl>, latent_code_4 <dbl>,
## #   latent_code_5 <dbl>, latent_code_6 <dbl>, latent_code_7 <dbl>,
## #   latent_code_8 <dbl>, latent_code_9 <dbl>, latent_code_10 <dbl>,
## #   latent_code_11 <dbl>, latent_code_12 <dbl>, latent_code_13 <dbl>,
## #   latent_code_14 <dbl>, latent_code_15 <dbl>, latent_code_16 <dbl>, …
…
pf_as_phylo(bird_beak_codes)

## 
## Phylogenetic tree with 2021 tips and 2020 internal nodes.
## 
## Tip labels:
##   Nothocercus_bonapartei, Tinamus_guttatus, Crypturellus_variegatus, Eudromia_elegans, Tinamotis_pentlandii, Taoniscus_nanus, ...
## Node labels:
##   root, Node2, Node3, Node4, Node5, Node6, ...
## 
## Rooted; includes branch lengths.

pf_as_pf(ape::rtree(100))

## # A tibble: 198 × 3
##    label is_tip phlo                                                            
##    <chr> <lgl>  <pfc>                                                           
##  1 t63   TRUE   ◎── 0.39──→ Node2 ── 0.77──→ No…── 0.28──→ Node4 ── 0.71──→ t63 
##  2 t19   TRUE   ◎── 0.39──→ Node2 ── 0.77──→ No…── 0.28──→ Node4 ── 0.29──→ t19 
##  3 t28   TRUE   ◎── 0.39──→ Node2 ── 0.77──→ Node3 ── 0.18──→ t28               
##  4 t25   TRUE   ◎──0.392──→ Node2 ──0.684──→ No…─0.745──→ Node10 ──0.385──→ t25 
##  5 t1    TRUE   ◎──0.392──→ Node2 ──0.684──→ No…──0.745──→ Node10 ──0.427──→ t1 
##  6 t24   TRUE   ◎──0.392──→ Node2 ──0.684──→ No…─0.538──→ Node13 ──0.792──→ t24 
##  7 t54   TRUE   ◎──0.392──→ Node2 ──0.684──→ No…─0.575──→ Node14 ──0.268──→ t54 
##  8 t55   TRUE   ◎──0.392──→ Node2 ──0.684──→ No…─0.657──→ Node15 ──0.680──→ t55 
##  9 t74   TRUE   ◎──0.392──→ Node2 ──0.684──→ No…─0.657──→ Node15 ──0.700──→ t74 
## 10 t99   TRUE   ◎──0.392──→ Node2 ──0.684──→ No…─0.839──→ Node16 ──0.751──→ t99 
## # … with 188 more rows

The data we are interested in for this example are ‘latent codes’
that were estimated previously in a deep learning model trained in
PyTorch (using Python). The model has been ported over to R (using the
torch package). Let’s have a look at them. One can use any
tidyverse ‘verbs’ on a pf object.

codes <- bird_beak_codes %>%
  select(label, starts_with("latent"))
codes

## # A tibble: 4,040 × 65
##    label latent…¹ latent…² latent…³ latent…⁴ latent…⁵ latent…⁶ latent…⁷ latent…⁸
##    <chr>    <dbl>    <dbl>    <dbl>    <dbl>    <dbl>    <dbl>    <dbl>    <dbl>
##  1 Noth… -0.0161  -0.0136   1.24e-2  1.98e-2 -0.00688 -7.59e-3  0.0108  -1.32e-2
##  2 Tina… -0.0340   0.00552 -9.60e-3  1.22e-2  0.0103  -1.00e-3  0.00893 -1.42e-2
##  3 Cryp…  0.0331   0.00167  2.50e-2  6.08e-5  0.0282  -1.98e-2  0.0200  -2.61e-2
##  4 Eudr… -0.00106 -0.00979  4.76e-3  1.16e-2  0.00525 -1.86e-2  0.00342  2.71e-4
##  5 Tina… -0.00351  0.0102   2.10e-2  9.94e-3 -0.00417  6.78e-3  0.0193  -2.00e-2
##  6 Taon…  0.0172  -0.00950 -5.07e-4 -4.22e-3 -0.00667  9.04e-3  0.00534 -1.62e-2
##  7 Noth… -0.0151  -0.0192  -1.95e-2  9.56e-4 -0.00341 -3.01e-5  0.00630 -6.54e-3
##  8 Rhyn… -0.0114  -0.00769 -1.80e-2  9.75e-3  0.0102   6.55e-4  0.0200  -1.76e-2
##  9 Noth… -0.0102   0.0104  -1.64e-2  3.01e-4  0.0317   1.10e-2  0.0235  -1.78e-2
## 10 Rhea…  0.0259   0.00994  1.10e-3  3.09e-3 -0.00237 -1.65e-3 -0.00916  2.13e-2
## # … with 4,030 more rows, 56 more variables: latent_code_9 <dbl>,
## #   latent_code_10 <dbl>, latent_code_11 <dbl>, latent_code_12 <dbl>,
## #   latent_code_13 <dbl>, latent_code_14 <dbl>, latent_code_15 <dbl>,
## #   latent_code_16 <dbl>, latent_code_17 <dbl>, latent_code_18 <dbl>,
## #   latent_code_19 <dbl>, latent_code_20 <dbl>, latent_code_21 <dbl>,
## #   latent_code_22 <dbl>, latent_code_23 <dbl>, latent_code_24 <dbl>,
## #   latent_code_25 <dbl>, latent_code_26 <dbl>, latent_code_27 <dbl>, …
…
Predict

preds <- Pelecaniformes %>%
  bind_cols(predict(fit, Pelecaniformes))

Extract ancestral predictions

pred_anc <- preds %>%
  filter(!is_tip) %>%
  mutate(norm = sqrt(rowSums(across(starts_with(".pred_codes.latent"), ~.x^2)))) %>%
  arrange(desc(norm))

pred_anc %>% select(label, norm)

## # A tibble: 55 × 2
##    label       norm
##    <chr>      <dbl>
##  1 Node185 3.55e-16
##  2 Node186 3.55e-16
##  3 Node187 3.55e-16
##  4 Node188 3.55e-16
##  5 Node189 3.55e-16
##  6 Node190 3.55e-16
##  7 Node191 3.55e-16
##  8 Node192 3.55e-16
##  9 Node193 3.55e-16
## 10 Node194 3.55e-16
## # … with 45 more rows
…
